%YAML 1.1
%TAG !u! tag:unity3d.com,2011:
--- !u!221 &22100000
AnimatorOverrideController:
  m_ObjectHideFlags: 0
  m_CorrespondingSourceObject: {fileID: 0}
  m_PrefabInstance: {fileID: 0}
  m_PrefabAsset: {fileID: 0}
  m_Name: demon_anim_override
  m_Controller: {fileID: 9100000, guid: 9931dac4ee89f3e4a899f4960bf9f094, type: 2}
  m_Clips:
  - m_OriginalClip: {fileID: 7400000, guid: 7b8743247def1bb49beb2dfa87796807, type: 2}
    m_OverrideClip: {fileID: 7400000, guid: 6dc9a3ac143c91248afe0fddf207a2b5, type: 2}
  - m_OriginalClip: {fileID: 7400000, guid: 61918b653ea2ea0469ad721a7cfbaed3, type: 2}
    m_OverrideClip: {fileID: 7400000, guid: 6a1bfc14846643044b24b9a9ef96427f, type: 2}
