%YAML 1.1
%TAG !u! tag:unity3d.com,2011:
--- !u!221 &22100000
AnimatorOverrideController:
  m_ObjectHideFlags: 0
  m_CorrespondingSourceObject: {fileID: 0}
  m_PrefabInstance: {fileID: 0}
  m_PrefabAsset: {fileID: 0}
  m_Name: green_npc_anim_override
  m_Controller: {fileID: 9100000, guid: f964f12957452884d97448a15a4794c6, type: 2}
  m_Clips:
  - m_OriginalClip: {fileID: 7400000, guid: a2f8c66619cb204409effb8bcfe55bb2, type: 2}
    m_OverrideClip: {fileID: 7400000, guid: b7281796ca81f144288fbe00055c923c, type: 2}
  - m_OriginalClip: {fileID: 7400000, guid: ae825eb6f6d1e7347bce341c1cf9fa4b, type: 2}
    m_OverrideClip: {fileID: 7400000, guid: 6615967e82b10e34fb2c452495e19573, type: 2}
